[
  {
    "model": "annuaire.need",
    "fields": {
      "name": "Habitat"
    }
  },
    {
    "model": "annuaire.need",
    "fields": {
      "name": "Alimentation"
    }
  },
    {
    "model": "annuaire.need",
    "fields": {
      "name": "Transport"
    }
  }
]