[
  {
    "model": "annuaire.organization",
    "pk": 1,
    "fields": {
      "name": "La maison du vélo",
      "description": "Atelier de réparation vélo et ventes d'occasion.",
      "type": "Collectivité locale",
      "address_number": 5,
      "address_street": "rue Arielle Dombasle",
      "address_zip": 35000,
      "address_city": "Rennes",
      "photo": "profilOrganization/keolis_9w0ceWF.webp",
      "cellphone": "0311248569",
      "phone": "0254778496",
      "email": "lamaisonduvelo@gmail.com",
      "website": "https://www.lamaisonduvelo.org",
      "date_registration": "2021-01-01T10:00:00",
      "date_modification": "2021-01-01T11:00:00",
      "date_validation": "2021-01-01T12:00:00",
      "validation": false,
      "owner": 1,
      "need": [3],
      "criterion": [2,3],
      "siret": "12345678912345"
    }
  },
  {
    "model": "annuaire.organization",
    "pk": 2,
    "fields": {
      "name": "Mystère mystère",
      "description": "Une orga qu'elle est mystérieuse",
      "type": "Association",
      "address_number": 3,
      "address_street": "impasse du secert",
      "address_zip": 35000,
      "address_city": "Rennes",
      "photo": "profilOrganization/istockphoto-1054899222-612x612.jpg",
      "cellphone": "0652221478",
      "phone": "0211554422",
      "email": "mysteremystere@mystere.mystere",
      "website": "https://www.mystere.mystere",
      "date_registration": "2021-01-01T10:00:00",
      "date_modification": "2021-01-01T10:00:00",
      "date_validation": "2021-01-01T12:00:00",
      "validation": true,
      "owner": 2,
      "need": [1,2,3],
      "criterion": [1],
      "siret": "36521178459663"
    }
  },
  {
    "model": "annuaire.organization",
    "pk": 3,
    "fields": {
      "name": "Le bidule",
      "description": "Une association, on sait pas trop",
      "type": "Association",
      "address_number": "",
      "address_street": "le Clos",
      "address_zip": 35621,
      "address_city": "Le patelin",
      "photo": "profilOrganization/Bidule.png",
      "cellphone": "",
      "phone": "",
      "email": "bidule@caramail.fr",
      "website": "www.bidule.fr",
      "date_registration": "2021-02-01T12:00:00",
      "date_modification": "2021-02-01T12:00:00",
      "date_validation": "2021-03-01T12:00:00",
      "validation": true,
      "owner": 2,
      "need": [1],
      "criterion": [2,3],
      "siret": "25447815463258"
    }
  },
  {
    "model": "annuaire.organization",
    "pk": 4,
    "fields": {
      "name": "Le lobbying du tofu",
      "description": "SCIC qui n'en veut du tofu",
      "type": "Association",
      "address_number": 50,
      "address_street": "rue Guillaume Meurice",
      "address_zip": 14000,
      "address_city": "Caen",
      "photo": "profilOrganization/unnamed.jpg",
      "cellphone": "",
      "phone": "0255487963",
      "email": "fandetofu@bio.net",
      "website": "http://letofucestfou.org",
      "date_registration": "2021-02-08T12:00:00",
      "date_modification": "2021-02-08T12:00:00",
      "date_validation": "2021-02-08T15:00:00",
      "validation": true,
      "owner": 3,
      "need": [2],
      "criterion": [1],
      "siret": "74112548876254"
    }
  },
  {
    "model": "annuaire.organization",
    "pk": 5,
    "fields": {
      "name": "Les bobos du centre ville",
      "description": "On fait la révolution en triant nos déchets",
      "type": "Entreprise",
      "address_number": 8,
      "address_street": "rue Montmartre",
      "address_zip": 75001,
      "address_city": "Paris",
      "photo": "profilOrganization/Cadre-bobo2.jpg",
      "cellphone": "0633658874",
      "phone": "",
      "email": "bobos@gmail.com",
      "website": "https://nousonsaitmieuxquevous.fr",
      "date_registration": "2021-02-12T12:00:00",
      "date_modification": "2021-02-12T14:00:00",
      "date_validation": "2021-02-12T12:00:00",
      "validation": false,
      "owner": 4,
      "need": [1,2],
      "criterion": [3],
      "siret": "02155874698523"
    }
  }
]