[
  {
    "model": "annuaire.user",
    "pk": 1,
    "fields": {
      "username": "CamilleMartin",
      "email": "camillemartin@zaclys.net",
      "password": "pbkdf2_sha256$216000$5jYpuX3iq5WH$gxlcLJfSCxPQ/MX5pA9SbFYC6moVC7F4zzcWIkkgk/U=",
      "first_name": "Camille",
      "last_name": "Martin",
      "address_zip": "75018",
      "address_city": "Paris",
      "photo": "profilUser/camille.png",
      "date_joined": "2021-01-05T00:00:00"
    }
  },
  {
    "model": "annuaire.user",
    "pk": 2,
    "fields": {
      "username": "AlexBlouet",
      "email": "alex.blouet@gmail.com",
      "password": "pbkdf2_sha256$216000$XAjFoJaSr8DM$sVh/sFCkmzdkR5lzRiYu7b4Xapqsja77cKKdbcPbwWQ=",
      "first_name": "Alex",
      "last_name": "Blouet",
      "address_zip": "50000",
      "address_city": "Saint-lô",
      "photo": "profilUser/alex.png",
      "date_joined": "2021-02-15T00:00:00"
    }
  },
  {
    "model": "annuaire.user",
    "pk": 3,
    "fields": {
      "username": "GwennAndre",
      "email": "gwennandre@zaclys.net",
      "password": "pbkdf2_sha256$216000$8bRlQLQWtdzg$i3GIlbgW4ro9u53/55Ws0G/VlAz9ntpb5gG3EaspcYc=",
      "first_name": "Gwenn",
      "last_name": "André",
      "address_zip": "67000",
      "address_city": "Strasbourg",
      "photo": "profilUser/gwen.png",
      "date_joined": "2021-04-08T00:00:00"
    }
  },
    {
    "model": "annuaire.user",
      "pk": 4,
    "fields": {
      "username": "ClaudeGuerrec",
      "email": "claude.guerrec@zaclys.net",
      "password": "pbkdf2_sha256$216000$GFrzoYqDlT33$Sh7yixSxl5fQM6AWuvIQW8xtUtEbd0Ov67b64SIC+L8==",
      "first_name": "Claude",
      "last_name": "Guerrec",
      "address_zip": "06000",
      "address_city": "Nice",
      "photo": "profilUser/claude.png",
      "date_joined": "2021-04-08T10:00:00"
    }
  }
]